[
   {
      "Coll_Excel_Name":"morpheus",
      "Coll_Excel_Job":"leader"
   },
   {
      "Coll_Excel_Name":"Rajan",
      "Coll_Excel_Job":"SR QA"
   },
   {
      "Coll_Excel_Name":"Sujata",
      "Coll_Excel_Job":"QA"
   }
]